// Jest Snapshot v1, https://goo.gl/fbAQLP

exports[`Feedback view Runs the render method and checks the returned data is a card instance 1`] = `
Object {
  "cardActions": Array [],
  "header": Object {
    "imageUrl": "https://partner-engineering-cdn.atl-paas.net/icons/feedback.png",
    "title": "Give feedback",
  },
  "sections": Array [
    Object {
      "widgets": Array [
        Object {
          "text": "Tell us what you think about the add-on or let us know if there are any crucial features missing.",
        },
        Object {
          "items": Array [
            Object {
              "selected": true,
              "text": "Awesome",
              "value": 5,
            },
            Object {
              "selected": false,
              "text": "Good",
              "value": 4,
            },
            Object {
              "selected": false,
              "text": "Okay",
              "value": 3,
            },
            Object {
              "selected": false,
              "text": "Bad",
              "value": 2,
            },
            Object {
              "selected": false,
              "text": "Terrible",
              "value": 1,
            },
          ],
          "text": "rating",
          "title": "What do you think of the add-on?",
          "type": "RADIO_BUTTON",
        },
        Object {
          "multiline": true,
          "text": "ratingReason",
          "title": "Why did you rate it this way?",
        },
        Object {
          "multiline": true,
          "text": "missingFeatures",
          "title": "Are there any features missing?",
        },
        Object {
          "items": Array [
            Object {
              "selected": true,
              "text": "Atlassian can contact me about my feedback",
              "value": "yes",
            },
          ],
          "text": "allowContactBack",
          "type": "CHECK_BOX",
        },
        Object {
          "buttons": Array [
            Object {
              "textButton": Object {
                "onClick": Object {
                  "action": Object {
                    "actionMethodName": "dispatchAction",
                    "parameters": Object {
                      "actionName": "addon.feedback.Submit",
                      "args": "{}",
                    },
                  },
                },
                "text": "Submit",
              },
            },
            Object {
              "textButton": Object {
                "onClick": Object {
                  "action": Object {
                    "actionMethodName": "dispatchAction",
                    "parameters": Object {
                      "actionName": "addon.NavigateBack",
                      "args": "{}",
                    },
                  },
                },
                "text": "Cancel",
              },
            },
          ],
        },
      ],
    },
  ],
}
`;

exports[`Feedback view Runs the render method and prints a card correctly when no \`currentUserId\` provided 1`] = `
Object {
  "cardActions": Array [],
  "header": Object {
    "imageUrl": "https://partner-engineering-cdn.atl-paas.net/icons/feedback.png",
    "title": "Give feedback",
  },
  "sections": Array [
    Object {
      "widgets": Array [
        Object {
          "text": "Tell us what you think about the add-on or let us know if there are any crucial features missing.",
        },
        Object {
          "items": Array [
            Object {
              "selected": true,
              "text": "Awesome",
              "value": 5,
            },
            Object {
              "selected": false,
              "text": "Good",
              "value": 4,
            },
            Object {
              "selected": false,
              "text": "Okay",
              "value": 3,
            },
            Object {
              "selected": false,
              "text": "Bad",
              "value": 2,
            },
            Object {
              "selected": false,
              "text": "Terrible",
              "value": 1,
            },
          ],
          "text": "rating",
          "title": "What do you think of the add-on?",
          "type": "RADIO_BUTTON",
        },
        Object {
          "multiline": true,
          "text": "ratingReason",
          "title": "Why did you rate it this way?",
        },
        Object {
          "multiline": true,
          "text": "missingFeatures",
          "title": "Are there any features missing?",
        },
        Object {
          "buttons": Array [
            Object {
              "textButton": Object {
                "onClick": Object {
                  "action": Object {
                    "actionMethodName": "dispatchAction",
                    "parameters": Object {
                      "actionName": "addon.feedback.Submit",
                      "args": "{\\"user\\":\\"-\\"}",
                    },
                  },
                },
                "text": "Submit",
              },
            },
            Object {
              "textButton": Object {
                "onClick": Object {
                  "action": Object {
                    "actionMethodName": "dispatchAction",
                    "parameters": Object {
                      "actionName": "addon.NavigateBack",
                      "args": "{}",
                    },
                  },
                },
                "text": "Cancel",
              },
            },
          ],
        },
      ],
    },
  ],
}
`;
