// Jest Snapshot v1, https://goo.gl/fbAQLP

exports[`View Issue Description Runs the render method and checks the data of used services 1`] = `
Object {
  "cardActions": Array [
    Object {
      "actionLabel": "Open in Bitbucket",
      "onClick": Object {
        "openLink": Object {
          "url": "https://bitbucket.org/testUser/test-repo/issues/3/third-issue",
        },
      },
    },
  ],
  "header": Object {
    "subTitle": "Issue #3 · in an hour",
    "title": "Third issue",
  },
  "sections": Array [
    Object {
      "header": "Description",
      "widgets": Array [
        Object {
          "text": "<br/><a href=\\"https://bitbucket.org/repo/oLjqRpj/images/1833146041-53361318.jpg\\">📷</a><br/> <br/><b>Your title here...</b><br/> <br/><strong>This is a bold text</strong> <i>This is italic text</i> <i> list item 1
</i>list item 2<br/> <br><br>  1. blah<br>  2. blah",
        },
      ],
    },
    Object {
      "widgets": Array [
        Object {
          "buttons": Array [
            Object {
              "textButton": Object {
                "onClick": Object {
                  "openLink": Object {
                    "url": "https://bitbucket.org/testUser/test-repo/issues/3/third-issue",
                  },
                },
                "text": "Open in Bitbucket",
              },
            },
          ],
        },
      ],
    },
  ],
}
`;

exports[`View Issue Description Runs the render method and checks the data of used services when no description provided 1`] = `
Object {
  "cardActions": Array [
    Object {
      "actionLabel": "Open in Bitbucket",
      "onClick": Object {
        "openLink": Object {
          "url": "https://bitbucket.org/testUser/test-repo/issues/3/third-issue",
        },
      },
    },
  ],
  "header": Object {
    "subTitle": "Issue #3 · in an hour",
    "title": "Third issue",
  },
  "sections": Array [
    Object {
      "header": "Description",
      "widgets": Array [
        Object {
          "text": "No description.",
        },
      ],
    },
    Object {
      "widgets": Array [
        Object {
          "buttons": Array [
            Object {
              "textButton": Object {
                "onClick": Object {
                  "openLink": Object {
                    "url": "https://bitbucket.org/testUser/test-repo/issues/3/third-issue",
                  },
                },
                "text": "Open in Bitbucket",
              },
            },
          ],
        },
      ],
    },
  ],
}
`;
