// Jest Snapshot v1, https://goo.gl/fbAQLP

exports[`View Issue/EditForm Should check that the issue editForm card data is correct 1`] = `
Object {
  "cardActions": Array [],
  "header": Object {
    "imageUrl": "https://partner-engineering-cdn.atl-paas.net/icons/edit.png",
    "title": "Edit issue",
  },
  "sections": Array [
    Object {
      "widgets": Array [
        Object {
          "hint": "Required field",
          "multiline": true,
          "text": "title",
          "title": "Title",
          "value": "Third issue",
        },
        Object {
          "items": Array [
            Object {
              "selected": true,
              "text": "bug",
              "value": "bug",
            },
            Object {
              "selected": false,
              "text": "enhancement",
              "value": "enhancement",
            },
            Object {
              "selected": false,
              "text": "proposal",
              "value": "proposal",
            },
            Object {
              "selected": false,
              "text": "task",
              "value": "task",
            },
          ],
          "text": "kind",
          "title": "Kind",
          "type": "DROPDOWN",
        },
        Object {
          "items": Array [
            Object {
              "selected": false,
              "text": "trivial",
              "value": "trivial",
            },
            Object {
              "selected": false,
              "text": "minor",
              "value": "minor",
            },
            Object {
              "selected": true,
              "text": "major",
              "value": "major",
            },
            Object {
              "selected": false,
              "text": "critical",
              "value": "critical",
            },
            Object {
              "selected": false,
              "text": "blocker",
              "value": "blocker",
            },
          ],
          "text": "priority",
          "title": "Priority",
          "type": "DROPDOWN",
        },
        Object {
          "multiline": true,
          "text": "content",
          "title": "Description",
          "value": "![53361318.jpg](https://bitbucket.org/repo/oLjqRpj/images/1833146041-53361318.jpg)
# Your title here... #

**This is a bold text**
*This is italic text*
* list item 1
*list item 2

1. blah
2. blah",
        },
        Object {
          "buttons": Array [
            Object {
              "textButton": Object {
                "onClick": Object {
                  "action": Object {
                    "actionMethodName": "dispatchAction",
                    "parameters": Object {
                      "actionName": "bitbucket.issue.editForm.Save",
                      "args": "{\\"owner\\":\\"testUser\\",\\"repo\\":\\"test-repo\\",\\"id\\":3}",
                    },
                  },
                },
                "text": "Save Changes",
              },
            },
            Object {
              "textButton": Object {
                "onClick": Object {
                  "action": Object {
                    "actionMethodName": "dispatchAction",
                    "parameters": Object {
                      "actionName": "addon.NavigateBack",
                      "args": "{}",
                    },
                  },
                },
                "text": "Cancel",
              },
            },
          ],
        },
      ],
    },
  ],
}
`;
