// Jest Snapshot v1, https://goo.gl/fbAQLP

exports[`View Issue/Assignee Should check that the issue Assignee card data is correct 1`] = `
Object {
  "cardActions": Array [
    Object {
      "actionLabel": "Open in Jira",
      "onClick": Object {
        "openLink": Object {
          "url": "https://main-jira-in-the-w0rld.atlassian.net/browse/DEV-11",
        },
      },
    },
  ],
  "header": Object {
    "subTitle": "DEV-11",
    "title": "Update task status by dragging and dropping from column to column >> Try dragging this task to \\"Done\\"",
  },
  "sections": Array [
    Object {
      "header": "<b>Assign</b>",
      "widgets": Array [
        Object {
          "keyValue": Object {
            "content": "Atlassian OnDemand  [Administrator]",
            "iconUrl": "https://secure.gravatar.com/488ca10d8ac50e446e910fd7f35f260c?s=48&d=https%3A%2F%2Fsecure.gravatar.com%2Favatar%2F488ca10d8ac50e446e910fd7f35f260c%3Fd%3Dmm%26s%3D48%26noRedirect%3Dtrue",
            "onClick": Object {
              "action": Object {
                "actionMethodName": "dispatchAction",
                "parameters": Object {
                  "actionName": "jira.user.Show",
                  "args": "{\\"instanceHost\\":\\"main-jira-in-the-w0rld.atlassian.net\\",\\"userName\\":\\"admin\\"}",
                },
              },
            },
            "topLabel": "Assignee",
          },
        },
        Object {
          "hint": "Enter email address or name",
          "suggestionsAction": Action {
            "_data": Object {
              "actionMethodName": "dispatchAction",
              "parameters": Object {
                "actionName": "jira.user.Search",
                "args": "{\\"instanceHost\\":\\"main-jira-in-the-w0rld.atlassian.net\\",\\"projectId\\":\\"10000\\"}",
              },
            },
          },
          "text": "assigneeEmail",
          "title": "New assignee",
        },
        Object {
          "buttons": Array [
            Object {
              "textButton": Object {
                "onClick": Object {
                  "action": Object {
                    "actionMethodName": "dispatchAction",
                    "parameters": Object {
                      "actionName": "jira.issue.assignee.Save",
                      "args": "{\\"instanceHost\\":\\"main-jira-in-the-w0rld.atlassian.net\\",\\"issueKey\\":\\"DEV-11\\"}",
                    },
                  },
                },
                "text": "Save Changes",
              },
            },
            Object {
              "textButton": Object {
                "onClick": Object {
                  "action": Object {
                    "actionMethodName": "dispatchAction",
                    "parameters": Object {
                      "actionName": "addon.NavigateBack",
                      "args": "{}",
                    },
                  },
                },
                "text": "Cancel",
              },
            },
          ],
        },
      ],
    },
    Object {
      "widgets": Array [
        Object {
          "buttons": Array [
            Object {
              "textButton": Object {
                "onClick": Object {
                  "openLink": Object {
                    "url": "https://main-jira-in-the-w0rld.atlassian.net/browse/DEV-11",
                  },
                },
                "text": "Open in Jira",
              },
            },
          ],
        },
      ],
    },
  ],
}
`;
