// Jest Snapshot v1, https://goo.gl/fbAQLP

exports[`View Previews Renders authorization prompts 1`] = `
Card {
  "_data": Object {
    "cardActions": Array [],
    "header": Object {
      "imageUrl": "https://partner-engineering-cdn.atl-paas.net/icons/link.png",
      "title": "Links in this email",
    },
    "sections": Array [
      Object {
        "widgets": Array [
          Object {
            "keyValue": Object {
              "content": "Jira",
              "iconUrl": "https://partner-engineering-cdn.atl-paas.net/icons/lock.png",
            },
          },
          Object {
            "keyValue": Object {
              "content": "Connect to Jira site for issue details<br><font color=\\"#42526e\\">TEST-123</font>",
              "multiline": true,
              "topLabel": "dummy.atlassian.net",
            },
          },
          Object {
            "buttons": Array [
              Object {
                "textButton": Object {
                  "onClick": Object {
                    "openLink": Object {
                      "url": "https://jira-auth.com",
                    },
                  },
                  "text": "Connect Jira site",
                },
              },
            ],
          },
        ],
      },
      Object {
        "widgets": Array [
          Object {
            "keyValue": Object {
              "content": "Bitbucket",
              "iconUrl": "https://partner-engineering-cdn.atl-paas.net/icons/lock.png",
            },
          },
          Object {
            "keyValue": Object {
              "content": "Connect to Bitbucket for full details<br><font color=\\"#42526e\\">Pull Request #123</font>",
              "multiline": true,
              "topLabel": "test-owner / test-repo",
            },
          },
          Object {
            "buttons": Array [
              Object {
                "textButton": Object {
                  "onClick": Object {
                    "openLink": Object {
                      "url": "https://bitbucket-auth.com",
                    },
                  },
                  "text": "Connect Bitbucket",
                },
              },
            ],
          },
        ],
      },
    ],
  },
}
`;

exports[`View Previews Renders empty view 1`] = `
Object {
  "cardActions": Array [],
  "header": Object {
    "imageUrl": "https://partner-engineering-cdn.atl-paas.net/icons/link.png",
    "title": "Links in this email",
  },
  "sections": Array [],
}
`;

exports[`View Previews Renders previews entities 1`] = `
Card {
  "_data": Object {
    "cardActions": Array [],
    "header": Object {
      "imageUrl": "https://partner-engineering-cdn.atl-paas.net/icons/link.png",
      "title": "Links in this email",
    },
    "sections": Array [
      Object {
        "widgets": Array [
          Object {
            "keyValue": Object {
              "content": "<font color=\\"#42526e\\">Bitbucket / test-repo</font>",
              "onClick": Object {
                "action": Object {
                  "actionMethodName": "dispatchAction",
                  "parameters": Object {
                    "actionName": "bitbucket.pullRequest.Show",
                    "args": "{\\"foo\\":\\"bar\\"}",
                  },
                },
              },
            },
          },
          Object {
            "keyValue": Object {
              "bottomLabel": "Last updated 5 months ago",
              "content": "Pull Request #1338 • <font color=\\"#0052cc\\">Open</font><br>Test pull request",
              "iconUrl": "https://partner-engineering-cdn.atl-paas.net/icons/bitbucket-pull-request.png",
              "multiline": true,
              "onClick": Object {
                "action": Object {
                  "actionMethodName": "dispatchAction",
                  "parameters": Object {
                    "actionName": "bitbucket.pullRequest.Show",
                    "args": "{\\"foo\\":\\"bar\\"}",
                  },
                },
              },
            },
          },
        ],
      },
      Object {
        "widgets": Array [
          Object {
            "keyValue": Object {
              "content": "<font color=\\"#42526e\\">Jira / Development</font>",
              "onClick": Object {
                "action": Object {
                  "actionMethodName": "dispatchAction",
                  "parameters": Object {
                    "actionName": "jira.issue.Show",
                    "args": "{\\"foo\\":\\"bar\\"}",
                  },
                },
              },
            },
          },
          Object {
            "keyValue": Object {
              "bottomLabel": "Last updated 4 days ago",
              "content": "DEV-14 • <font color=\\"#42526e\\">To do</font><br>Test Issue summary",
              "iconUrl": "http://localhost/iconUrl",
              "multiline": true,
              "onClick": Object {
                "action": Object {
                  "actionMethodName": "dispatchAction",
                  "parameters": Object {
                    "actionName": "jira.issue.Show",
                    "args": "{\\"foo\\":\\"bar\\"}",
                  },
                },
              },
            },
          },
        ],
      },
    ],
  },
}
`;
