// Jest Snapshot v1, https://goo.gl/fbAQLP

exports[`Controller jira.issue.InsertLink Should return correct html 1`] = `
"
      <table style=\\"background-color:#f3f5f7; border-radius:0.5em; padding:0.5em; width:20em; table-layout:fixed;\\">
        <colgroup>
          <col style=\\"width: 3em;\\"/>
          <col/>
        </colgroup>
        <tbody>
          <tr>
            <td colspan=\\"2\\" style=\\"color:#838591\\">
      <a href=\\"https://test.com/browse/TEST-1337\\" style=\\"display:block; color:inherit; text-decoration:none; white-space:nowrap; text-overflow:ellipsis; overflow:hidden;\\">
        Jira / TEST-PROJECT
      </a>
    </td>
          </tr>
          <tr>
            <td>
              
      <a href=\\"https://test.com/browse/TEST-1337\\" style=\\"display:block; color:inherit; text-decoration:none; white-space:nowrap; text-overflow:ellipsis; overflow:hidden;\\">
        <img src=\\"dummy-icon\\" style=\\"width: 2.5em;\\"/>
      </a>
    
            </td>
            <td style=\\"color:#42526e;\\">
              
      <a href=\\"https://test.com/browse/TEST-1337\\" style=\\"display:block; color:inherit; text-decoration:none; white-space:nowrap; text-overflow:ellipsis; overflow:hidden;\\">
        
                <b>TEST-1337</b>
                <br/>
                <span title=\\"lorem ipsum\\">lorem ipsum</span>
              
      </a>
    
            </td>
          </tr>
        </tbody>
      </table>
    "
`;
