{
  "priority": "major",
  "kind": "bug",
  "repository": {
    "name": "test-repo",
    "links": {
      "self": {
        "href": "https://api.bitbucket.org/2.0/repositories/testUser/test-repo"
      },
      "html": {
        "href": "https://bitbucket.org/testUser/test-repo"
      },
      "avatar": {
        "href": "https://bytebucket.org/ravatar/%7B3e895284-5e55-4dcf-9999-1e58127223d4%7D?ts=default"
      }
    },
    "full_name": "testUser/test-repo",
    "owner": {
      "username": "testUser",
      "display_name": "Test User",
      "account_id": "555555:290fd415-bdfb-41ae-b55d-d5555555daf5",
      "links": {
        "self": {
          "href": "https://api.bitbucket.org/2.0/users/testUser"
        },
        "html": {
          "href": "https://bitbucket.org/testUser/"
        },
        "avatar": {
          "href": "https://bitbucket.org/account/testUser/avatar/32/"
        }
      },
      "type": "user",
      "uuid": "{21871664-ccc6-461c-828c-c4c8c8cc7322}"
    },
    "type": "repository",
    "uuid": "{3c895284-5c22-4ccf-9982-2c58127223c4}"
  },
  "links": {
    "attachments": {
      "href": "https://api.bitbucket.org/2.0/repositories/testUser/test-repo/issues/3/attachments"
    },
    "self": {
      "href": "https://api.bitbucket.org/2.0/repositories/testUser/test-repo/issues/3"
    },
    "watch": {
      "href": "https://api.bitbucket.org/2.0/repositories/testUser/test-repo/issues/3/watch"
    },
    "comments": {
      "href": "https://api.bitbucket.org/2.0/repositories/testUser/test-repo/issues/3/comments"
    },
    "html": {
      "href": "https://bitbucket.org/testUser/test-repo/issues/3/third-issue"
    },
    "vote": {
      "href": "https://api.bitbucket.org/2.0/repositories/testUser/test-repo/issues/3/vote"
    }
  },
  "reporter": {
    "username": "testUser",
    "display_name": "Test User",
    "account_id": "000000:000ff000-ffff-f00f-f0000000fff0",
    "links": {
      "self": {
        "href": "https://api.bitbucket.org/2.0/users/testUser"
      },
      "html": {
        "href": "https://bitbucket.org/testUser/"
      },
      "avatar": {
        "href": "https://bitbucket.org/account/testUser/avatar/32/"
      }
    },
    "type": "user",
    "uuid": "{21871664-ccc6-461e-828d-c4d8f8cd7322}"
  },
  "title": "Third issue",
  "component": null,
  "votes": 0,
  "watches": 1,
  "content": {
    "raw": "![53361318.jpg](https://bitbucket.org/repo/oLjqRpj/images/1833146041-53361318.jpg)\r\n# Your title here... #\r\n\r\n**This is a bold text**\r\n*This is italic text*\r\n* list item 1\r\n*list item 2\r\n\r\n1. blah\r\n2. blah",
    "markup": "markdown",
    "html": "<p><img alt=\"53361318.jpg\" src=\"https://bitbucket.org/repo/oLjqRpj/images/1833146041-53361318.jpg\" /></p>\n<h1 id=\"markdown-header-your-title-here\">Your title here...</h1>\n<p><strong>This is a bold text</strong>\n<em>This is italic text</em>\n<em> list item 1\n</em>list item 2</p>\n<ol>\n<li>blah</li>\n<li>blah</li>\n</ol>",
    "type": "rendered"
  },
  "assignee": {
    "username": "maxymyokha",
    "display_name": "Maxym Yokha",
    "account_id": "5ab9f2e79ac5fe2a6e6847e6",
    "links": {
      "self": {
        "href": "https://api.bitbucket.org/2.0/users/maxymyokha"
      },
      "html": {
        "href": "https://bitbucket.org/maxymyokha/"
      },
      "avatar": {
        "href": "https://bitbucket.org/account/maxymyokha/avatar/32/"
      }
    },
    "type": "user",
    "uuid": "{43e40e5b-1faf-496f-9ef9-155e535c0738}"
  },
  "state": "new",
  "version": null,
  "edited_on": null,
  "created_on": "2018-06-11T14:48:11.940669+00:00",
  "milestone": null,
  "updated_on": "2018-06-26T08:55:31.959348+00:00",
  "type": "issue",
  "id": 3
}
