{
  "pagelen": 10,
  "values": [
    {
      "links": {
        "self": {
          "href":
            "https://api.bitbucket.org/2.0/repositories/someOwner/test-repo/pullrequests/3/comments/33333333"
        },
        "code": {
          "href":
            "https://api.bitbucket.org/2.0/repositories/someOwner/test-repo/diff/someOwner/test-repo:aec41f0d2518..8e1e9237a2a3?path=README.md"
        },
        "html": {
          "href":
            "https://bitbucket.org/someOwner/test-repo/pull-requests/3/_/diff#comment-33333333"
        }
      },
      "deleted": false,
      "pullrequest": {
        "type": "pullrequest",
        "id": 3,
        "links": {
          "self": {
            "href":
              "https://api.bitbucket.org/2.0/repositories/someOwner/test-repo/pullrequests/3"
          },
          "html": {
            "href": "https://bitbucket.org/someOwner/test-repo/pull-requests/3"
          }
        },
        "title": "README.md edited online with Bitbucket"
      },
      "content": {
        "raw": "Important improvement!!!",
        "markup": "markdown",
        "html": "<p>Important improvement!!!</p>",
        "type": "rendered"
      },
      "created_on": "2018-06-12T08:26:02.599872+00:00",
      "user": {
        "username": "someOwner",
        "display_name": "Some Owner",
        "type": "user",
        "uuid": "{22222222-cccc-eeee-dddd-cccccccc2222}",
        "links": {
          "self": { "href": "https://api.bitbucket.org/2.0/users/someOwner" },
          "html": { "href": "https://bitbucket.org/someOwner/" },
          "avatar": {
            "href": "https://bitbucket.org/account/someOwner/avatar/32/"
          }
        }
      },
      "inline": { "to": 2, "from": null, "path": "README.md" },
      "updated_on": "2018-06-12T08:26:02.609573+00:00",
      "type": "pullrequest_comment",
      "id": 33333333
    },
    {
      "links": {
        "self": {
          "href":
            "https://api.bitbucket.org/2.0/repositories/someOwner/test-repo/pullrequests/3/comments/4444444"
        },
        "code": {
          "href":
            "https://api.bitbucket.org/2.0/repositories/someOwner/test-repo/diff/someOwner/test-repo:aec41f0d2518..8e1e9237a2a3?path=bitbucket-pipelines.yml"
        },
        "html": {
          "href":
            "https://bitbucket.org/someOwner/test-repo/pull-requests/3/_/diff#comment-4444444"
        }
      },
      "deleted": false,
      "pullrequest": {
        "type": "pullrequest",
        "id": 3,
        "links": {
          "self": {
            "href":
              "https://api.bitbucket.org/2.0/repositories/someOwner/test-repo/pullrequests/3"
          },
          "html": {
            "href": "https://bitbucket.org/someOwner/test-repo/pull-requests/3"
          }
        },
        "title": "README.md edited online with Bitbucket"
      },
      "content": {
        "raw": "I’m out :microphone: ",
        "markup": "markdown",
        "html":
          "<p>I’m out <img class=\"emoji\" src=\"https://pf-emoji-service--cdn.us-east-1.prod.public.atl-paas.net/standard/551c9814-1d37-4573-819d-afab3afeaf32/48x48/1f3a4.png\" alt=\"🎤\" title=\":microphone:\" data-emoji-short-name=\":microphone:\" /> </p>",
        "type": "rendered"
      },
      "created_on": "2018-06-12T08:26:36.200097+00:00",
      "user": {
        "username": "someOwner",
        "display_name": "Some Owner",
        "type": "user",
        "uuid": "{22222222-cccc-eeee-dddd-cccccccc2222}",
        "links": {
          "self": { "href": "https://api.bitbucket.org/2.0/users/someOwner" },
          "html": { "href": "https://bitbucket.org/someOwner/" },
          "avatar": {
            "href": "https://bitbucket.org/account/someOwner/avatar/32/"
          }
        }
      },
      "inline": { "to": 8, "from": null, "path": "src/main/java/com/plugin/connect/modules/beans/someRandomFile.min.js" },
      "updated_on": "2018-06-12T08:26:36.209188+00:00",
      "type": "pullrequest_comment",
      "id": 4444444
    },
    {
      "links": {
        "self": {
          "href":
            "https://api.bitbucket.org/2.0/repositories/someOwner/test-repo/pullrequests/3/comments/66853712"
        },
        "code": {
          "href":
            "https://api.bitbucket.org/2.0/repositories/someOwner/test-repo/diff/someOwner/test-repo:aec41f0d2518..8e1e9237a2a3?path=bitbucket-pipelines.yml"
        },
        "html": {
          "href":
            "https://bitbucket.org/someOwner/test-repo/pull-requests/3/_/diff#comment-66853712"
        }
      },
      "deleted": false,
      "pullrequest": {
        "type": "pullrequest",
        "id": 3,
        "links": {
          "self": {
            "href":
              "https://api.bitbucket.org/2.0/repositories/someOwner/test-repo/pullrequests/3"
          },
          "html": {
            "href": "https://bitbucket.org/someOwner/test-repo/pull-requests/3"
          }
        },
        "title": "README.md edited online with Bitbucket"
      },
      "content": {
        "raw":
          "Lorem ipsum dolor sit amet, consectetur adipiscing elit, sed do eiusmod  tempor incididunt ut labore et dolore magna aliqua. Ut enim ad minim  veniam, quis nostrud exercitation ullamco laboris nisi ut aliquip ex ea  commodo consequat. Duis aute irure dolor in reprehenderit in voluptate  velit esse cillum dolore eu fugiat nulla pariatur. Excepteur sint  occaecat cupidatat non proident, sunt in culpa qui officia deserunt  mollit anim id est laborum.",
        "markup": "markdown",
        "html":
          "<p>Lorem ipsum dolor sit amet, consectetur adipiscing elit, sed do eiusmod  tempor incididunt ut labore et dolore magna aliqua. Ut enim ad minim  veniam, quis nostrud exercitation ullamco laboris nisi ut aliquip ex ea  commodo consequat. Duis aute irure dolor in reprehenderit in voluptate  velit esse cillum dolore eu fugiat nulla pariatur. Excepteur sint  occaecat cupidatat non proident, sunt in culpa qui officia deserunt  mollit anim id est laborum.</p>",
        "type": "rendered"
      },
      "created_on": "2018-06-12T10:19:03.075666+00:00",
      "user": {
        "username": "someOwner",
        "display_name": "Some Owner",
        "type": "user",
        "uuid": "{22222222-cccc-eeee-dddd-cccccccc2222}",
        "links": {
          "self": { "href": "https://api.bitbucket.org/2.0/users/someOwner" },
          "html": { "href": "https://bitbucket.org/someOwner/" },
          "avatar": {
            "href": "https://bitbucket.org/account/someOwner/avatar/32/"
          }
        }
      },
      "inline": { "to": 3, "from": null, "path": "components/modules/src/main/java/com/team/plugin/connect/modules/beans/WebHookModuleBean.java" },
      "updated_on": "2018-06-12T10:19:03.107308+00:00",
      "type": "pullrequest_comment",
      "id": 66853712
    },
    {
      "links": {
        "self": {
          "href":
            "https://api.bitbucket.org/2.0/repositories/someOwner/test-repo/pullrequests/3/comments/66666666"
        },
        "code": {
          "href":
            "https://api.bitbucket.org/2.0/repositories/someOwner/test-repo/diff/someOwner/test-repo:aec41f0d2518..8e1e9237a2a3?path=bitbucket-pipelines.yml"
        },
        "html": {
          "href":
            "https://bitbucket.org/someOwner/test-repo/pull-requests/3/_/diff#comment-66666666"
        }
      },
      "deleted": false,
      "pullrequest": {
        "type": "pullrequest",
        "id": 3,
        "links": {
          "self": {
            "href":
              "https://api.bitbucket.org/2.0/repositories/someOwner/test-repo/pullrequests/3"
          },
          "html": {
            "href": "https://bitbucket.org/someOwner/test-repo/pull-requests/3"
          }
        },
        "title": "README.md edited online with Bitbucket"
      },
      "content": {
        "raw": "this is just another comment",
        "markup": "markdown",
        "html": "<p>this is just another comment</p>",
        "type": "rendered"
      },
      "created_on": "2018-06-12T10:19:26.937009+00:00",
      "user": {
        "username": "someOwner",
        "display_name": "Some Owner",
        "type": "user",
        "uuid": "{22222222-cccc-eeee-dddd-cccccccc2222}",
        "links": {
          "self": { "href": "https://api.bitbucket.org/2.0/users/someOwner" },
          "html": { "href": "https://bitbucket.org/someOwner/" },
          "avatar": {
            "href": "https://bitbucket.org/account/someOwner/avatar/32/"
          }
        }
      },
      "inline": { "to": null, "from": null, "path": "bitbucket-pipelines.yml" },
      "updated_on": "2018-06-12T10:19:26.944121+00:00",
      "type": "pullrequest_comment",
      "id": 66666666
    },
    {
      "links": {
        "self": {
          "href":
            "https://api.bitbucket.org/2.0/repositories/someOwner/test-repo/pullrequests/3/comments/22222222"
        },
        "html": {
          "href":
            "https://bitbucket.org/someOwner/test-repo/pull-requests/3/_/diff#comment-22222222"
        }
      },
      "deleted": false,
      "pullrequest": {
        "type": "pullrequest",
        "id": 3,
        "links": {
          "self": {
            "href":
              "https://api.bitbucket.org/2.0/repositories/someOwner/test-repo/pullrequests/3"
          },
          "html": {
            "href": "https://bitbucket.org/someOwner/test-repo/pull-requests/3"
          }
        },
        "title": "README.md edited online with Bitbucket"
      },
      "content": {
        "raw": "general pr comment",
        "markup": "markdown",
        "html": "<p>general pr comment</p>",
        "type": "rendered"
      },
      "created_on": "2018-06-12T10:21:22.200949+00:00",
      "user": {
        "username": "someOwner",
        "display_name": "Some Owner",
        "type": "user",
        "uuid": "{22222222-cccc-eeee-dddd-cccccccc2222}",
        "links": {
          "self": { "href": "https://api.bitbucket.org/2.0/users/someOwner" },
          "html": { "href": "https://bitbucket.org/someOwner/" },
          "avatar": {
            "href": "https://bitbucket.org/account/someOwner/avatar/32/"
          }
        }
      },
      "updated_on": "2018-06-12T10:21:22.212075+00:00",
      "type": "pullrequest_comment",
      "id": 22222222
    }
  ],
  "page": 1,
  "size": 5
}
