{
    "build_number": 1123,
    "completed_on": "2018-01-10T16:19:42.581Z",
    "repository": {
      "full_name": "test-user/test-repo",
      "type": "repository",
      "name": "test-repo",
      "links": {
        "self": { "href": "https://api.bitbucket.org/2.0/repositories/test-user/test-repo" },
        "html": { "href": "https://bitbucket.org/test-user/test-repo" },
        "avatar": { "href": "https://bitbucket.org/test-user/test-repo/avatar/32/" }
      },
      "uuid": "{d557103a-5dc6-40f3-9b75-df7dce3887fe}",
      "owner": {
        "username": "test-user",
        "display_name": "Test User",
        "type": "team",
        "uuid": "{02b941e3-cfaa-40f9-9a58-cec53e20bdc3}",
        "links": {
          "self": {
            "href": "https://api.bitbucket.org/2.0/teams/test-user"
          },
          "html": {
            "href": "https://bitbucket.org/test-user/"
          },
          "avatar": {
            "href": "https://bitbucket.org/test-user/test-repo/avatar/32/"
          }
        }
      }
    },
    "creator": {
      "username": "test-user",
      "type": "user",
      "display_name": "Test User",
      "uuid": "{f5fb1c43-f083-4b75-8bab-703d84c0bf0b}",
      "links": {
        "self": { "href": "https://api.bitbucket.org/2.0/users/test-user" },
        "html": { "href": "https://bitbucket.org/test-user/" },
        "avatar": { "href": "https://bitbucket.org/account/test-user/avatar/32/" }
      }
    },
    "created_on": "2018-01-10T16:19:07.51Z",
    "state": {
      "type": "pipeline_state_completed",
      "name": "COMPLETED",
      "result": { "type": "pipeline_state_completed_failed", "name": "FAILED" }
    },
    "trigger": { "type": "pipeline_trigger_push", "name": "PUSH" },
    "target": {
      "commit": {
        "type": "commit",
        "hash": "1ff400ad6505dd91f41adb288b4c2a9994f83ecc",
        "message": "target message",
        "links": {
          "self": {
            "href":
              "https://api.bitbucket.org/2.0/repositories/test-user/test-repo/commit/1ff400ad6505dd91f41adb288b4c2a9994f83ecc"
          },
          "html": {
            "href":
              "https://bitbucket.org/test-user/test-repo/commits/1ff400ad6505dd91f41adb288b4c2a9994f83ecc"
          }
        }
      },
      "ref_type": "branch",
      "ref_name": "master",
      "type": "pipeline_ref_target",
      "selector": { "type": "default" }
    },
    "build_seconds_used": 23,
    "type": "pipeline",
    "duration_in_seconds": 23,
    "uuid": "{e5b799f6-4933-469f-a64b-c9253498e61f}",
    "first_successful": true
  }
