{
  "expand": "renderedFields,names,schema,operations,editmeta,changelog,versionedRepresentations,transitions",
  "id": "10010",
  "self": "https://main-jira-in-the-w0rld.atlassian.net/rest/api/2/issue/10010",
  "key": "DEV-11",
  "renderedFields": {
    "summary": null,
    "issuetype": null,
    "components": null,
    "description": "<p><b>Lorem Ipsum</b> is simply dummy text of the printing and typesetting industry. Lorem Ipsum has been the industry's standard dummy text ever since the 1500s, when an unknown printer took a galley of type and scrambled it to make a type specimen book. It has survived not only five centuries, but also the leap into electronic typesetting, remaining essentially unchanged. It was popularised in the 1960s with the release of Letraset sheets containing Lorem Ipsum passages, and more recently with desktop publishing software like Aldus PageMaker including versions of Lorem Ipsum.</p>",
    "project": null,
    "reporter": null,
    "priority": null,
    "labels": null,
    "timetracking": {
      "originalEstimate": "2 days",
      "remainingEstimate": "1 day",
      "timeSpent": "1 day",
      "originalEstimateSeconds": 57600,
      "remainingEstimateSeconds": 28800,
      "timeSpentSeconds": 28800
    },
    "attachment": [
      {
        "self": "https://main-jira-in-the-w0rld.atlassian.net/rest/api/2/attachment/10001",
        "id": "10001",
        "filename": "Screen Shot 2018-06-01 at 7.48.03 PM.png",
        "author": {
          "self": "https://main-jira-in-the-w0rld.atlassian.net/rest/api/2/user?username=admin",
          "name": "admin",
          "key": "admin",
          "accountId": "5ad05c3b2dc58f2b3a94be84",
          "emailAddress": "test@mail.com",
          "avatarUrls": {
            "48x48": "https://secure.gravatar.com/488ca10d8ac50e446e910fd7f35f260c?s=48&d=https%3A%2F%2Fsecure.gravatar.com%2Favatar%2F488ca10d8ac50e446e910fd7f35f260c%3Fd%3Dmm%26s%3D48%26noRedirect%3Dtrue",
            "24x24": "https://secure.gravatar.com/488ca10d8ac50e446e910fd7f35f260c?s=24&d=https%3A%2F%2Fsecure.gravatar.com%2Favatar%2F488ca10d8ac50e446e910fd7f35f260c%3Fd%3Dmm%26s%3D24%26noRedirect%3Dtrue",
            "16x16": "https://secure.gravatar.com/488ca10d8ac50e446e910fd7f35f260c?s=16&d=https%3A%2F%2Fsecure.gravatar.com%2Favatar%2F488ca10d8ac50e446e910fd7f35f260c%3Fd%3Dmm%26s%3D16%26noRedirect%3Dtrue",
            "32x32": "https://secure.gravatar.com/488ca10d8ac50e446e910fd7f35f260c?s=32&d=https%3A%2F%2Fsecure.gravatar.com%2Favatar%2F488ca10d8ac50e446e910fd7f35f260c%3Fd%3Dmm%26s%3D32%26noRedirect%3Dtrue"
          },
          "displayName": "Atlassian OnDemand  [Administrator]",
          "active": true,
          "timeZone": "Europe/Helsinki"
        },
        "created": "Today 12:51 PM",
        "size": "12 kB",
        "mimeType": "image/png",
        "content": "https://main-jira-in-the-w0rld.atlassian.net/secure/attachment/10001/Screen+Shot+2018-06-01+at+7.48.03+PM.png",
        "thumbnail": "https://main-jira-in-the-w0rld.atlassian.net/secure/thumbnail/10001/Screen+Shot+2018-06-01+at+7.48.03+PM.png"
      },
      {
        "self": "https://main-jira-in-the-w0rld.atlassian.net/rest/api/2/attachment/10000",
        "id": "10000",
        "filename": "Screen Shot 2018-06-13 at 7.57.56 PM.png",
        "author": {
          "self": "https://main-jira-in-the-w0rld.atlassian.net/rest/api/2/user?username=admin",
          "name": "admin",
          "key": "admin",
          "accountId": "5ad05c3b2dc58f2b3a94be84",
          "emailAddress": "test@mail.com",
          "avatarUrls": {
            "48x48": "https://secure.gravatar.com/488ca10d8ac50e446e910fd7f35f260c?s=48&d=https%3A%2F%2Fsecure.gravatar.com%2Favatar%2F488ca10d8ac50e446e910fd7f35f260c%3Fd%3Dmm%26s%3D48%26noRedirect%3Dtrue",
            "24x24": "https://secure.gravatar.com/488ca10d8ac50e446e910fd7f35f260c?s=24&d=https%3A%2F%2Fsecure.gravatar.com%2Favatar%2F488ca10d8ac50e446e910fd7f35f260c%3Fd%3Dmm%26s%3D24%26noRedirect%3Dtrue",
            "16x16": "https://secure.gravatar.com/488ca10d8ac50e446e910fd7f35f260c?s=16&d=https%3A%2F%2Fsecure.gravatar.com%2Favatar%2F488ca10d8ac50e446e910fd7f35f260c%3Fd%3Dmm%26s%3D16%26noRedirect%3Dtrue",
            "32x32": "https://secure.gravatar.com/488ca10d8ac50e446e910fd7f35f260c?s=32&d=https%3A%2F%2Fsecure.gravatar.com%2Favatar%2F488ca10d8ac50e446e910fd7f35f260c%3Fd%3Dmm%26s%3D32%26noRedirect%3Dtrue"
          },
          "displayName": "Atlassian OnDemand  [Administrator]",
          "active": true,
          "timeZone": "Europe/Helsinki"
        },
        "created": "Today 12:51 PM",
        "size": "37 kB",
        "mimeType": "image/png",
        "content": "https://main-jira-in-the-w0rld.atlassian.net/secure/attachment/10000/Screen+Shot+2018-06-13+at+7.57.56+PM.png",
        "thumbnail": "https://main-jira-in-the-w0rld.atlassian.net/secure/thumbnail/10000/Screen+Shot+2018-06-13+at+7.57.56+PM.png"
      }
    ],
    "assignee": null,
    "status": null
  },
  "transitions": [
    {
      "id": "11",
      "name": "To Do",
      "to": {
        "self": "https://main-jira-in-the-w0rld.atlassian.net/rest/api/2/status/10000",
        "description": "",
        "iconUrl": "https://main-jira-in-the-w0rld.atlassian.net/",
        "name": "To Do",
        "id": "10000",
        "statusCategory": {
          "self": "https://main-jira-in-the-w0rld.atlassian.net/rest/api/2/statuscategory/2",
          "id": 2,
          "key": "new",
          "colorName": "blue-gray",
          "name": "To Do"
        }
      },
      "hasScreen": false,
      "isGlobal": true,
      "isInitial": false,
      "isConditional": false
    },
    {
      "id": "21",
      "name": "In Progress",
      "to": {
        "self": "https://main-jira-in-the-w0rld.atlassian.net/rest/api/2/status/3",
        "description": "This issue is being actively worked on at the moment by the assignee.",
        "iconUrl": "https://main-jira-in-the-w0rld.atlassian.net/images/icons/statuses/inprogress.png",
        "name": "In Progress",
        "id": "3",
        "statusCategory": {
          "self": "https://main-jira-in-the-w0rld.atlassian.net/rest/api/2/statuscategory/4",
          "id": 4,
          "key": "indeterminate",
          "colorName": "yellow",
          "name": "In Progress"
        }
      },
      "hasScreen": false,
      "isGlobal": true,
      "isInitial": false,
      "isConditional": false
    },
    {
      "id": "31",
      "name": "Done",
      "to": {
        "self": "https://main-jira-in-the-w0rld.atlassian.net/rest/api/2/status/10001",
        "description": "",
        "iconUrl": "https://main-jira-in-the-w0rld.atlassian.net/",
        "name": "Done",
        "id": "10001",
        "statusCategory": {
          "self": "https://main-jira-in-the-w0rld.atlassian.net/rest/api/2/statuscategory/3",
          "id": 3,
          "key": "done",
          "colorName": "green",
          "name": "Done"
        }
      },
      "hasScreen": false,
      "isGlobal": true,
      "isInitial": false,
      "isConditional": false
    }
  ],
  "fields": {
    "summary": "Update task status by dragging and dropping from column to column >> Try dragging this task to \"Done\"",
    "issuetype": {
      "self": "https://main-jira-in-the-w0rld.atlassian.net/rest/api/2/issuetype/10003",
      "id": "10003",
      "description": "The sub-task of the issue",
      "iconUrl": "https://main-jira-in-the-w0rld.atlassian.net/ex/jira/c51c0262-20cd-462d-b989-5a0aadcffec9/secure/viewavatar?size=xsmall&avatarId=10316&avatarType=issuetype",
      "name": "Sub-task",
      "subtask": true,
      "avatarId": 10316
    },
    "components": [
      {
        "self": "https://main-jira-in-the-w0rld.atlassian.net/rest/api/2/component/10000",
        "id": "10000",
        "name": "New component",
        "description": "Where can I get some? There are many variations of passages of Lorem Ipsum available, but the majority have suffered alteration in some form, by injected humour, or randomised words which don't look even slightly believable."
      },
      {
        "self": "https://main-jira-in-the-w0rld.atlassian.net/rest/api/2/component/10001",
        "id": "10001",
        "name": "New component 2"
      }
    ],
    "description": "*Lorem Ipsum* is simply dummy text of the printing and typesetting industry. Lorem Ipsum has been the industry's standard dummy text ever since the 1500s, when an unknown printer took a galley of type and scrambled it to make a type specimen book. It has survived not only five centuries, but also the leap into electronic typesetting, remaining essentially unchanged. It was popularised in the 1960s with the release of Letraset sheets containing Lorem Ipsum passages, and more recently with desktop publishing software like Aldus PageMaker including versions of Lorem Ipsum.",
    "project": {
      "self": "https://main-jira-in-the-w0rld.atlassian.net/rest/api/2/project/10000",
      "id": "10000",
      "key": "Development",
      "name": "Development",
      "projectTypeKey": "software",
      "avatarUrls": {
        "48x48": "https://main-jira-in-the-w0rld.jira.com/ex/jira/c51c0262-20cd-462d-b989-5a0aadcffec9/secure/projectavatar?size=small&pid=10000&avatarId=10515",
        "24x24": "https://main-jira-in-the-w0rld.jira.com/ex/jira/c51c0262-20cd-462d-b989-5a0aadcffec9/secure/projectavatar?size=small&pid=10000&avatarId=10515",
        "16x16": "https://main-jira-in-the-w0rld.jira.com/ex/jira/c51c0262-20cd-462d-b989-5a0aadcffec9/secure/projectavatar?size=small&pid=10000&avatarId=10515",
        "32x32": "https://main-jira-in-the-w0rld.jira.com/ex/jira/c51c0262-20cd-462d-b989-5a0aadcffec9/secure/projectavatar?size=small&pid=10000&avatarId=10515"
      }
    },
    "reporter": {
      "self": "https://main-jira-in-the-w0rld.atlassian.net/rest/api/2/user?username=admin",
      "name": "admin",
      "key": "admin",
      "accountId": "5ad05c3b2dc58f2b3a94be84",
      "emailAddress": "test@mail.com",
      "avatarUrls": {
        "48x48": "https://secure.gravatar.com/488ca10d8ac50e446e910fd7f35f260c?s=48&d=https%3A%2F%2Fsecure.gravatar.com%2Favatar%2F488ca10d8ac50e446e910fd7f35f260c%3Fd%3Dmm%26s%3D48%26noRedirect%3Dtrue",
        "24x24": "https://secure.gravatar.com/488ca10d8ac50e446e910fd7f35f260c?s=24&d=https%3A%2F%2Fsecure.gravatar.com%2Favatar%2F488ca10d8ac50e446e910fd7f35f260c%3Fd%3Dmm%26s%3D24%26noRedirect%3Dtrue",
        "16x16": "https://secure.gravatar.com/488ca10d8ac50e446e910fd7f35f260c?s=16&d=https%3A%2F%2Fsecure.gravatar.com%2Favatar%2F488ca10d8ac50e446e910fd7f35f260c%3Fd%3Dmm%26s%3D16%26noRedirect%3Dtrue",
        "32x32": "https://secure.gravatar.com/488ca10d8ac50e446e910fd7f35f260c?s=32&d=https%3A%2F%2Fsecure.gravatar.com%2Favatar%2F488ca10d8ac50e446e910fd7f35f260c%3Fd%3Dmm%26s%3D32%26noRedirect%3Dtrue"
      },
      "displayName": "Atlassian OnDemand  [Administrator]",
      "active": true,
      "timeZone": "Europe/Helsinki"
    },
    "priority": {
      "self": "https://main-jira-in-the-w0rld.atlassian.net/rest/api/2/priority/4",
      "iconUrl": "https://main-jira-in-the-w0rld.atlassian.net/ex/jira/c51c0262-20cd-462d-b989-5a0aadcffec9/images/icons/priorities/low.svg",
      "name": "Low",
      "id": "4"
    },
    "labels": [
      "ASD",
      "Test1"
    ],
    "timetracking": {
      "originalEstimate": "2d",
      "remainingEstimate": "1d",
      "timeSpent": "1d",
      "originalEstimateSeconds": 57600,
      "remainingEstimateSeconds": 28800,
      "timeSpentSeconds": 28800
    },
    "attachment": [
      {
        "self": "https://main-jira-in-the-w0rld.atlassian.net/rest/api/2/attachment/10001",
        "id": "10001",
        "filename": "Screen Shot 2018-06-01 at 7.48.03 PM.png",
        "author": {
          "self": "https://main-jira-in-the-w0rld.atlassian.net/rest/api/2/user?username=admin",
          "name": "admin",
          "key": "admin",
          "accountId": "5ad05c3b2dc58f2b3a94be84",
          "emailAddress": "test@mail.com",
          "avatarUrls": {
            "48x48": "https://secure.gravatar.com/488ca10d8ac50e446e910fd7f35f260c?s=48&d=https%3A%2F%2Fsecure.gravatar.com%2Favatar%2F488ca10d8ac50e446e910fd7f35f260c%3Fd%3Dmm%26s%3D48%26noRedirect%3Dtrue",
            "24x24": "https://secure.gravatar.com/488ca10d8ac50e446e910fd7f35f260c?s=24&d=https%3A%2F%2Fsecure.gravatar.com%2Favatar%2F488ca10d8ac50e446e910fd7f35f260c%3Fd%3Dmm%26s%3D24%26noRedirect%3Dtrue",
            "16x16": "https://secure.gravatar.com/488ca10d8ac50e446e910fd7f35f260c?s=16&d=https%3A%2F%2Fsecure.gravatar.com%2Favatar%2F488ca10d8ac50e446e910fd7f35f260c%3Fd%3Dmm%26s%3D16%26noRedirect%3Dtrue",
            "32x32": "https://secure.gravatar.com/488ca10d8ac50e446e910fd7f35f260c?s=32&d=https%3A%2F%2Fsecure.gravatar.com%2Favatar%2F488ca10d8ac50e446e910fd7f35f260c%3Fd%3Dmm%26s%3D32%26noRedirect%3Dtrue"
          },
          "displayName": "Atlassian OnDemand  [Administrator]",
          "active": true,
          "timeZone": "Europe/Helsinki"
        },
        "created": "2018-06-26T12:51:43.356+0300",
        "size": 12109,
        "mimeType": "image/png",
        "content": "https://main-jira-in-the-w0rld.atlassian.net/secure/attachment/10001/Screen+Shot+2018-06-01+at+7.48.03+PM.png",
        "thumbnail": "https://main-jira-in-the-w0rld.atlassian.net/secure/thumbnail/10001/Screen+Shot+2018-06-01+at+7.48.03+PM.png"
      },
      {
        "self": "https://main-jira-in-the-w0rld.atlassian.net/rest/api/2/attachment/10000",
        "id": "10000",
        "filename": "Screen Shot 2018-06-13 at 7.57.56 PM.png",
        "author": {
          "self": "https://main-jira-in-the-w0rld.atlassian.net/rest/api/2/user?username=admin",
          "name": "admin",
          "key": "admin",
          "accountId": "5ad05c3b2dc58f2b3a94be84",
          "emailAddress": "test@mail.com",
          "avatarUrls": {
            "48x48": "https://secure.gravatar.com/488ca10d8ac50e446e910fd7f35f260c?s=48&d=https%3A%2F%2Fsecure.gravatar.com%2Favatar%2F488ca10d8ac50e446e910fd7f35f260c%3Fd%3Dmm%26s%3D48%26noRedirect%3Dtrue",
            "24x24": "https://secure.gravatar.com/488ca10d8ac50e446e910fd7f35f260c?s=24&d=https%3A%2F%2Fsecure.gravatar.com%2Favatar%2F488ca10d8ac50e446e910fd7f35f260c%3Fd%3Dmm%26s%3D24%26noRedirect%3Dtrue",
            "16x16": "https://secure.gravatar.com/488ca10d8ac50e446e910fd7f35f260c?s=16&d=https%3A%2F%2Fsecure.gravatar.com%2Favatar%2F488ca10d8ac50e446e910fd7f35f260c%3Fd%3Dmm%26s%3D16%26noRedirect%3Dtrue",
            "32x32": "https://secure.gravatar.com/488ca10d8ac50e446e910fd7f35f260c?s=32&d=https%3A%2F%2Fsecure.gravatar.com%2Favatar%2F488ca10d8ac50e446e910fd7f35f260c%3Fd%3Dmm%26s%3D32%26noRedirect%3Dtrue"
          },
          "displayName": "Atlassian OnDemand  [Administrator]",
          "active": true,
          "timeZone": "Europe/Helsinki"
        },
        "created": "2018-06-26T12:51:37.020+0300",
        "size": 38308,
        "mimeType": "image/png",
        "content": "https://main-jira-in-the-w0rld.atlassian.net/secure/attachment/10000/Screen+Shot+2018-06-13+at+7.57.56+PM.png",
        "thumbnail": "https://main-jira-in-the-w0rld.atlassian.net/secure/thumbnail/10000/Screen+Shot+2018-06-13+at+7.57.56+PM.png"
      }
    ],
    "assignee": {
      "self": "https://main-jira-in-the-w0rld.atlassian.net/rest/api/2/user?username=admin",
      "name": "admin",
      "key": "admin",
      "accountId": "5ad05c3b2dc58f2b3a94be84",
      "emailAddress": "test@mail.com",
      "avatarUrls": {
        "48x48": "https://secure.gravatar.com/488ca10d8ac50e446e910fd7f35f260c?s=48&d=https%3A%2F%2Fsecure.gravatar.com%2Favatar%2F488ca10d8ac50e446e910fd7f35f260c%3Fd%3Dmm%26s%3D48%26noRedirect%3Dtrue",
        "24x24": "https://secure.gravatar.com/488ca10d8ac50e446e910fd7f35f260c?s=24&d=https%3A%2F%2Fsecure.gravatar.com%2Favatar%2F488ca10d8ac50e446e910fd7f35f260c%3Fd%3Dmm%26s%3D24%26noRedirect%3Dtrue",
        "16x16": "https://secure.gravatar.com/488ca10d8ac50e446e910fd7f35f260c?s=16&d=https%3A%2F%2Fsecure.gravatar.com%2Favatar%2F488ca10d8ac50e446e910fd7f35f260c%3Fd%3Dmm%26s%3D16%26noRedirect%3Dtrue",
        "32x32": "https://secure.gravatar.com/488ca10d8ac50e446e910fd7f35f260c?s=32&d=https%3A%2F%2Fsecure.gravatar.com%2Favatar%2F488ca10d8ac50e446e910fd7f35f260c%3Fd%3Dmm%26s%3D32%26noRedirect%3Dtrue"
      },
      "displayName": "Atlassian OnDemand  [Administrator]",
      "active": true,
      "timeZone": "Europe/Helsinki"
    },
    "updated": "2018-06-22T17:31:26.796+0300",
    "status": {
      "self": "https://main-jira-in-the-w0rld.atlassian.net/rest/api/2/status/3",
      "description": "This issue is being actively worked on at the moment by the assignee.",
      "iconUrl": "https://main-jira-in-the-w0rld.atlassian.net/images/icons/statuses/inprogress.png",
      "name": "In Progress",
      "id": "3",
      "statusCategory": {
        "self": "https://main-jira-in-the-w0rld.atlassian.net/rest/api/2/statuscategory/4",
        "id": 4,
        "key": "indeterminate",
        "colorName": "yellow",
        "name": "In Progress"
      }
    },
    "watches": {
      "self": "https://api.atlassian.com/ex/jira/aaa1a1aa-aa11-1a1a-a111-aa111aaa111a/rest/api/2/issue/DEV-11/watchers",
      "watchCount": 1,
      "isWatching": true
   }
  }
}
