{
  "self": "https://main-jira-in-the-w0rld.jira.com/rest/api/2/user?username=test",
  "key": "test",
  "name": "test",
  "emailAddress": "test@gmail.com",
  "avatarUrls": {
    "16x16": "https://avatar-cdn.atlassian.com/2ead0e14ed3d745239785f32c1036e70?s=16&d=https%3A%2F%2Fsecure.gravatar.com%2Favatar%2F2ead0e14ed3d745239785f32c1036e70%3Fd%3Dmm%26s%3D16%26noRedirect%3Dtrue",
    "24x24": "https://avatar-cdn.atlassian.com/2ead0e14ed3d745239785f32c1036e70?s=24&d=https%3A%2F%2Fsecure.gravatar.com%2Favatar%2F2ead0e14ed3d745239785f32c1036e70%3Fd%3Dmm%26s%3D24%26noRedirect%3Dtrue",
    "32x32": "https://avatar-cdn.atlassian.com/2ead0e14ed3d745239785f32c1036e70?s=32&d=https%3A%2F%2Fsecure.gravatar.com%2Favatar%2F2ead0e14ed3d745239785f32c1036e70%3Fd%3Dmm%26s%3D32%26noRedirect%3Dtrue",
    "48x48": "https://avatar-cdn.atlassian.com/2ead0e14ed3d745239785f32c1036e70?s=48&d=https%3A%2F%2Fsecure.gravatar.com%2Favatar%2F2ead0e14ed3d745239785f32c1036e70%3Fd%3Dmm%26s%3D48%26noRedirect%3Dtrue"
  },
  "displayName": "Test user",
  "active": true,
  "timeZone": "America/Los_Angeles",
  "locale": "en_US",
  "groups": {
    "size": 3,
    "items": [
      {
        "name": "administrators",
        "self": "https://main-jira-in-the-w0rld.jira.com/rest/api/2/group?groupname=administrators"
      },
      {
        "name": "jira-administrators",
        "self": "https://main-jira-in-the-w0rld.jira.com/rest/api/2/group?groupname=jira-administrators"
      },
      {
        "name": "site-admins",
        "self": "https://main-jira-in-the-w0rld.jira.com/rest/api/2/group?groupname=site-admins"
      }
    ]
  },
  "applicationRoles": {
    "size": 3,
    "items": []
  },
  "expand": "groups,applicationRoles"
}