// Jest Snapshot v1, https://goo.gl/fbAQLP

exports[`View bitbucket.user.Show Runs the render method and checks the data of card service is correct 1`] = `
Object {
  "cardActions": Array [
    Object {
      "actionLabel": "Open in Bitbucket",
      "onClick": Object {
        "openLink": Object {
          "url": "https://bitbucket.org/test-user/",
        },
      },
    },
  ],
  "header": Object {
    "imageUrl": "https://bitbucket.org/account/test-user/avatar/32/",
    "title": "Test User",
  },
  "sections": Array [
    Object {
      "widgets": Array [
        Object {
          "keyValue": Object {
            "content": "test-user",
            "iconUrl": "https://partner-engineering-cdn.atl-paas.net/icons/unknown-user.png",
          },
        },
        Object {
          "keyValue": Object {
            "content": "Member since 8 years ago",
            "iconUrl": "https://partner-engineering-cdn.atl-paas.net/icons/time.png",
          },
        },
      ],
    },
    Object {
      "widgets": Array [
        Object {
          "buttons": Array [
            Object {
              "textButton": Object {
                "onClick": Object {
                  "openLink": Object {
                    "url": "https://bitbucket.org/test-user/",
                  },
                },
                "text": "Open in Bitbucket",
              },
            },
          ],
        },
      ],
    },
  ],
}
`;
